SomadorComponent/simulation/qsim/Somador.msim.vcd
$comment
	File created using the following command:
		vcd file Somador.msim.vcd -direction
$end
$date
	Mon Aug 19 11:53:11 2024
$end
$version
	ModelSim Version 10.1d
$end
$timescale
	1ps
$end
$scope module Somador_vlg_vec_tst $end
$var reg 3 ! A [2:0] $end
$var reg 3 " B [2:0] $end
$var reg 1 # Te $end
$var wire 1 $ S [2] $end
$var wire 1 % S [1] $end
$var wire 1 & S [0] $end
$var wire 1 ' saidasDisplay [0] $end
$var wire 1 ( saidasDisplay [1] $end
$var wire 1 ) saidasDisplay [2] $end
$var wire 1 * saidasDisplay [3] $end
$var wire 1 + saidasDisplay [4] $end
$var wire 1 , saidasDisplay [5] $end
$var wire 1 - saidasDisplay [6] $end
$var wire 1 . TsFim $end
$var wire 1 / sampler $end
$scope module i1 $end
$var wire 1 0 gnd $end
$var wire 1 1 vcc $end
$var wire 1 2 unknown $end
$var tri1 1 3 devclrn $end
$var tri1 1 4 devpor $end
$var tri1 1 5 devoe $end
$var wire 1 6 Te~combout $end
$var wire 1 7 S~0_combout $end
$var wire 1 8 Ts[1]~0_combout $end
$var wire 1 9 Ts[1]~1_combout $end
$var wire 1 : S~1_combout $end
$var wire 1 ; Ts[2]~2_combout $end
$var wire 1 < S~2_combout $end
$var wire 1 = Ts~3_combout $end
$var wire 1 > Ts~4_combout $end
$var wire 1 ? d|Mux6~0_combout $end
$var wire 1 @ d|Mux5~0_combout $end
$var wire 1 A d|Mux4~0_combout $end
$var wire 1 B d|Mux3~0_combout $end
$var wire 1 C d|Mux2~0_combout $end
$var wire 1 D d|Mux1~0_combout $end
$var wire 1 E d|Mux0~0_combout $end
$var wire 1 F A~combout [2] $end
$var wire 1 G A~combout [1] $end
$var wire 1 H A~combout [0] $end
$var wire 1 I B~combout [2] $end
$var wire 1 J B~combout [1] $end
$var wire 1 K B~combout [0] $end
$upscope $end
$upscope $end
$enddefinitions $end
#0
$dumpvars
b111 !
b0 "
0#
1&
1%
1$
1-
1,
1+
1*
0)
0(
0'
0.
x/
00
11
x2
13
14
15
06
17
08
09
1:
0;
1<
0=
0>
1?
0@
1A
1B
0C
0D
0E
1H
1G
1F
0K
0J
0I
$end
#5000
b10 "
b11 "
1K
1J
0/
18
07
1=
1;
0:
1:
1E
1@
0?
1>
0<
0&
0%
1D
1C
0@
1?
1%
1'
0-
1.
0$
0,
1(
1)
1-
1,
#10000
b110 !
b10 "
0K
0H
1/
08
0:
0E
0D
0C
0B
0A
1@
0?
0%
0'
0(
0)
0*
0+
0-
0,
#15000
b100 !
b110 "
b101 !
1I
1H
0G
0/
1<
17
0=
0;
1:
1E
1D
1C
1B
1A
0@
1?
0<
1$
1&
1%
1'
1(
1)
1*
1+
1-
0$
1,
#20000
b100 "
b111 !
1G
0J
1/
#25000
b11 !
b10 !
b110 "
b0 !
1J
0H
0G
0F
0/
07
0>
1<
0E
0C
0B
0A
1@
0?
0&
0.
1$
0'
0)
0*
0+
0-
0,
#30000
b111 "
b11 "
b100 !
b1 "
b110 !
1G
1F
1K
0J
0I
1/
17
0D
1B
1A
0@
1?
1&
0(
1*
1+
1-
1,
#35000
b111 !
b101 "
b11 !
1I
1H
0F
0/
18
07
1=
1;
0:
1D
0B
0A
1@
0?
0&
1>
0<
1E
0D
1B
1A
0%
1(
0*
0+
0-
0,
0E
0B
0A
1.
0$
1'
0(
1*
1+
0'
0*
0+
#40000
b1 !
0G
1/
0=
0;
1:
0>
1<
1E
1D
1C
1B
1A
0@
1?
1%
0E
0C
0B
0A
1@
0?
0.
1$
1'
1(
1)
1*
1+
1-
1,
0'
0)
0*
0+
0-
0,
#45000
b0 !
b1 "
b100 !
b110 !
0I
0H
1G
1F
0/
08
17
1=
1;
0:
0=
0;
1:
1B
1A
1>
0<
1&
0%
0>
1<
1E
1C
0@
1?
1%
1*
1+
1.
0$
0E
0D
0C
0.
1$
1'
1)
1-
1,
0'
0(
0)
#50000
b0 "
b100 "
b100 !
0G
0K
1I
1/
0:
07
1>
0<
0B
0A
1@
0?
0%
0&
1.
0$
0*
0+
0-
0,
#55000
b110 "
b101 !
b1 !
1H
0F
1J
0/
17
0>
1<
1:
1B
1A
0@
1?
1&
0.
1$
1%
1*
1+
1-
1,
#60000
b111 "
b11 !
b10 !
b110 !
0H
1G
1F
1K
1/
1=
1;
0:
1>
0<
1<
0B
1@
0?
0%
1.
0$
1E
1D
1C
1B
0@
1?
1$
0*
0-
0,
1'
1(
1)
1*
1-
1,
#65000
b11 "
b1 "
b0 "
0K
0J
0I
0/
07
0=
0;
1:
0<
0>
1<
0&
1%
0$
0E
0C
0B
0A
1@
0?
0.
1$
0'
0)
0*
0+
0-
0,
#70000
b10 !
b10 "
b11 "
1K
1J
0F
1/
17
1=
1;
0:
0<
1E
0D
1B
1A
0@
1?
1<
1&
0%
0$
0E
1D
1@
0?
1'
0(
1*
1+
1-
1$
1,
0'
1(
0-
0,
#75000
b110 !
b1 "
b0 "
0K
0J
1F
0/
07
0=
0;
1:
1>
0<
1E
1C
0@
1?
0>
1<
0&
1%
1.
0$
0E
0C
0B
0A
1@
0?
1'
1)
1-
0.
1$
1,
0'
0)
0*
0+
0-
0,
