FlipFlopD/simulation/qsim/FlipflopD.msim.vcd
$comment
	File created using the following command:
		vcd file FlipflopD.msim.vcd -direction
$end
$date
	Mon Aug 12 11:45:44 2024
$end
$version
	ModelSim Version 10.1d
$end
$timescale
	1ps
$end
$scope module FlipflopD_vlg_vec_tst $end
$var reg 1 ! clk $end
$var reg 1 " d $end
$var wire 1 # q $end
$var wire 1 $ sampler $end
$scope module i1 $end
$var wire 1 % gnd $end
$var wire 1 & vcc $end
$var wire 1 ' unknown $end
$var tri1 1 ( devclrn $end
$var tri1 1 ) devpor $end
$var tri1 1 * devoe $end
$var wire 1 + clk~combout $end
$var wire 1 , d~combout $end
$var wire 1 - q~reg0feeder_combout $end
$var wire 1 . q~reg0_regout $end
$upscope $end
$upscope $end
$enddefinitions $end
#0
$dumpvars
0!
0"
0#
x$
0%
1&
x'
1(
1)
1*
0+
0,
0-
0.
$end
#5000
1!
1+
0$
#10000
1"
0!
1,
0+
1$
1-
#15000
0"
1!
0,
1+
0$
0-
1.
1#
#20000
1"
0!
1,
0+
1$
1-
#25000
1!
1+
0$
#30000
0"
0!
0,
0+
1$
0-
#35000
1!
1+
0$
0.
0#
#40000
1"
0!
1,
0+
1$
1-
#45000
0"
1!
0,
1+
0$
0-
1.
1#
#50000
1"
0!
1,
0+
1$
1-
#55000
0"
1!
0,
1+
0$
0-
#60000
1"
0!
1,
0+
1$
1-
#65000
1!
1+
0$
#70000
0"
0!
0,
0+
1$
0-
#75000
1!
1+
0$
0.
0#
