Lista2/Questao3/simulation/qsim/Questao3.msim.vcd
$comment
	File created using the following command:
		vcd file Questao3.msim.vcd -direction
$end
$date
	Wed Aug 14 07:54:24 2024
$end
$version
	ModelSim Version 10.1d
$end
$timescale
	1ps
$end
$scope module Questao3_vlg_vec_tst $end
$var reg 4 ! gray [3:0] $end
$var wire 1 " johnson [4] $end
$var wire 1 # johnson [3] $end
$var wire 1 $ johnson [2] $end
$var wire 1 % johnson [1] $end
$var wire 1 & johnson [0] $end
$var wire 1 ' sampler $end
$scope module i1 $end
$var wire 1 ( gnd $end
$var wire 1 ) vcc $end
$var wire 1 * unknown $end
$var tri1 1 + devclrn $end
$var tri1 1 , devpor $end
$var tri1 1 - devoe $end
$var wire 1 . Mux4~0_combout $end
$var wire 1 / Mux3~0_combout $end
$var wire 1 0 Mux2~0_combout $end
$var wire 1 1 Mux1~0_combout $end
$var wire 1 2 Mux0~0_combout $end
$var wire 1 3 gray~combout [3] $end
$var wire 1 4 gray~combout [2] $end
$var wire 1 5 gray~combout [1] $end
$var wire 1 6 gray~combout [0] $end
$upscope $end
$upscope $end
$enddefinitions $end
#0
$dumpvars
b0 !
0&
0%
0$
0#
0"
x'
0(
1)
x*
1+
1,
1-
0.
0/
00
01
02
06
05
04
03
$end
#5000
b1 !
16
0'
1.
1&
#10000
b11 !
b10 !
06
15
1'
10
1/
1$
1%
#15000
b11 !
16
0'
00
0$
#20000
b111 !
b101 !
b100 !
06
05
14
1'
12
11
10
0/
0.
1"
1#
1$
0%
0&
#25000
b101 !
16
0'
1/
1%
#30000
b111 !
b110 !
06
15
1'
02
1.
0"
1&
#35000
b111 !
16
0'
12
1"
#40000
b1111 !
b1011 !
b1001 !
b1000 !
06
05
04
13
1'
02
01
00
0/
0.
0"
0#
0$
0%
0&
#45000
b1001 !
16
0'
#50000
b1011 !
b1010 !
06
15
1'
#55000
b1011 !
16
0'
#60000
b1111 !
b1101 !
b1100 !
06
05
14
1'
12
11
1"
1#
#65000
b1101 !
16
0'
01
0#
#70000
b1111 !
b1110 !
06
15
1'
02
0"
#75000
b1111 !
16
0'
