Lista2/Questao1/simulation/qsim/Maquinas.msim.vcd
$comment
	File created using the following command:
		vcd file Maquinas.msim.vcd -direction
$end
$date
	Tue Aug 06 16:29:24 2024
$end
$version
	ModelSim Version 10.1d
$end
$timescale
	1ps
$end
$scope module Maquinas_vlg_vec_tst $end
$var reg 1 ! a $end
$var reg 1 " b $end
$var reg 1 # c $end
$var reg 1 $ d $end
$var wire 1 % M1 $end
$var wire 1 & M2 $end
$var wire 1 ' M3 $end
$var wire 1 ( M4 $end
$var wire 1 ) sampler $end
$scope module i1 $end
$var wire 1 * gnd $end
$var wire 1 + vcc $end
$var wire 1 , unknown $end
$var tri1 1 - devclrn $end
$var tri1 1 . devpor $end
$var tri1 1 / devoe $end
$var wire 1 0 a~combout $end
$var wire 1 1 b~combout $end
$var wire 1 2 c~combout $end
$var wire 1 3 M3~0_combout $end
$var wire 1 4 d~combout $end
$var wire 1 5 M4~0_combout $end
$upscope $end
$upscope $end
$enddefinitions $end
#0
$dumpvars
0!
0"
0#
0$
0%
0&
0'
0(
x)
0*
1+
x,
1-
1.
1/
00
01
02
03
04
05
$end
#5000
1$
14
0)
15
1(
#10000
1#
0$
12
04
1)
05
13
0(
1'
#15000
1$
14
0)
15
1(
#20000
1"
0#
0$
11
02
04
1)
05
03
1&
0(
0'
#25000
1$
14
0)
15
1(
#30000
1#
0$
12
04
1)
05
13
0(
1'
#35000
1$
14
0)
#40000
1!
0"
0#
0$
10
01
02
04
1)
03
1%
0&
0'
#45000
1$
14
0)
15
1(
#50000
1#
0$
12
04
1)
05
13
0(
1'
#55000
1$
14
0)
#60000
1"
0#
0$
11
02
04
1)
03
1&
0'
#65000
1$
14
0)
#70000
1#
0$
12
04
1)
#75000
1$
14
0)
