Mux/simulation/qsim/Mux.msim.vcd
$comment
	File created using the following command:
		vcd file Mux.msim.vcd -direction
$end
$date
	Mon Aug 05 12:27:23 2024
$end
$version
	ModelSim Version 10.1d
$end
$timescale
	1ps
$end
$scope module Mux_vlg_vec_tst $end
$var reg 1 ! I0 $end
$var reg 1 " I1 $end
$var reg 1 # I2 $end
$var reg 1 $ I3 $end
$var reg 1 % S0 $end
$var reg 1 & S1 $end
$var wire 1 ' T $end
$var wire 1 ( sampler $end
$scope module i1 $end
$var wire 1 ) gnd $end
$var wire 1 * vcc $end
$var wire 1 + unknown $end
$var tri1 1 , devclrn $end
$var tri1 1 - devpor $end
$var tri1 1 . devoe $end
$var wire 1 / I1~combout $end
$var wire 1 0 I3~combout $end
$var wire 1 1 S0~combout $end
$var wire 1 2 I2~combout $end
$var wire 1 3 S1~combout $end
$var wire 1 4 I0~combout $end
$var wire 1 5 T~0_combout $end
$var wire 1 6 T~1_combout $end
$upscope $end
$upscope $end
$enddefinitions $end
#0
$dumpvars
0!
0"
0#
0$
0%
0&
0'
x(
0)
1*
x+
1,
1-
1.
0/
00
01
02
03
04
05
06
$end
#5000
1&
13
0(
#10000
1%
0&
11
03
1(
#15000
1$
1&
10
13
0(
15
16
1'
#20000
1#
0%
0&
12
01
03
1(
05
06
0'
#25000
1"
1&
1/
13
0(
15
16
1'
#30000
1!
0$
1%
0&
14
00
11
03
1(
05
06
16
0'
1'
#35000
1&
13
0(
15
06
0'
#40000
0#
0%
0&
02
01
03
1(
16
1'
#45000
1$
1&
10
13
0(
#50000
0"
1%
0&
0/
11
03
1(
05
06
0'
#55000
1&
13
0(
15
16
1'
#60000
0!
1#
0$
0%
0&
04
12
00
01
03
1(
05
06
0'
#65000
1&
13
0(
#70000
1%
0&
11
03
1(
16
1'
#75000
1"
1$
1&
1/
10
13
0(
15
