Lista2/Questao5/simulation/qsim/Questao5.msim.vcd
$comment
	File created using the following command:
		vcd file Questao5.msim.vcd -direction
$end
$date
	Fri Aug 16 07:50:50 2024
$end
$version
	ModelSim Version 10.1d
$end
$timescale
	1ps
$end
$scope module Questao5_vlg_vec_tst $end
$var reg 2 ! a [1:0] $end
$var reg 2 " b [1:0] $end
$var reg 1 # Te $end
$var wire 1 $ s [1] $end
$var wire 1 % s [0] $end
$var wire 1 & TsFim $end
$var wire 1 ' sampler $end
$scope module i1 $end
$var wire 1 ( gnd $end
$var wire 1 ) vcc $end
$var wire 1 * unknown $end
$var tri1 1 + devclrn $end
$var tri1 1 , devpor $end
$var tri1 1 - devoe $end
$var wire 1 . Te~combout $end
$var wire 1 / s~0_combout $end
$var wire 1 0 Ts[1]~0_combout $end
$var wire 1 1 Ts[1]~1_combout $end
$var wire 1 2 s~1_combout $end
$var wire 1 3 Ts~2_combout $end
$var wire 1 4 b~combout [1] $end
$var wire 1 5 b~combout [0] $end
$var wire 1 6 a~combout [1] $end
$var wire 1 7 a~combout [0] $end
$upscope $end
$upscope $end
$enddefinitions $end
#0
$dumpvars
b0 !
b0 "
0#
0%
0$
0&
x'
0(
1)
x*
1+
1,
1-
0.
0/
00
01
02
03
05
04
07
06
$end
#5000
b1 "
15
0'
1/
1%
#10000
b11 "
b10 "
05
14
1'
0/
12
0%
1$
#15000
b11 "
15
0'
1/
1%
#20000
b1 !
b1 "
b0 "
05
04
17
1'
02
0$
#25000
b1 "
15
0'
10
0/
12
0%
1$
#30000
b11 "
b10 "
05
14
1'
00
1/
13
02
03
12
1%
1&
0$
0&
1$
#35000
b11 "
15
0'
10
0/
13
02
0%
1&
0$
#40000
b11 !
b10 !
b1 "
b0 "
05
04
07
16
1'
00
03
12
0&
1$
#45000
b1 "
15
0'
1/
1%
#50000
b11 "
b10 "
05
14
1'
0/
13
02
0%
1&
0$
#55000
b11 "
15
0'
1/
1%
#60000
b11 !
b1 "
b0 "
05
04
17
1'
03
12
0&
1$
#65000
b1 "
15
0'
10
0/
13
02
0%
1&
0$
#70000
b11 "
b10 "
05
14
1'
00
1/
12
02
1%
1$
0$
#75000
b11 "
15
0'
10
0/
12
0%
1$
